<!-- SPDX-FileCopyrightText: aao.fyi -->
<svg xmlns="http://www.w3.org/2000/svg" width="24" height="24" viewBox="0 0 24 24" fill="none" stroke="#fff" stroke-linecap="round" stroke-linejoin="round">
 <!-- aao.fyi -->
 <circle cx="12.23" cy="12.23" r="11" style="fill:#4c5462;stroke-width:.25"/>
 <text x="1.2966824" y="16.791185" style="fill:#fff;font-family:sans-serif;font-size:13.689px;letter-spacing:-1.8633px;line-height:1.25;stroke-width:.040105" xml:space="preserve"><tspan x="1.2966824" y="16.791185" style="fill:#fff;font-family:'Space Mono';font-size:13.689px;stroke-width:.040105">{?}</tspan></text>
</svg>
